mini project 01 – STA 9750 Submission Material
…
Code

sum(nyc_payroll$pay_savings_from_cap)

[1] 92359814

Code

nyc_payroll |>
  filter(is_above_the_cap == "Yes") |>
  group_by(agency_name, title_description) |>
  summarize(total_savings = sum(pay_savings_from_cap)) |>
  arrange(desc(total_savings))

# A tibble: 320 × 3
# Groups:   agency_name [63]
   agency_name                   title_description                 total_savings
   <chr>                         <chr>                                     <dbl>
 1 Department Of Correction      Captain                               13433166.
 2 Fire Department               Captain                                9358013.
 3 Department Of Correction      Warden-Assistant Deputy Warden T…      6921116.
 4 Department Of Correction      Correction Officer                     4806111.
 5 Police Department             Police Officer D/A Detective 1st…      3776059.
 6 Police Department             Lieutenant D/A Commander Of Dete…      3412895.
 7 Police Department             Captain Detailed As Assistant Ch…      2850212.
 8 Police Department             Lieutenant D/A Special Assignment      2731127.
 9 Department Of Correction      Senior Stationary Engineer             2522180.
10 Dept Of Health/Mental Hygiene City Medical Examiner                  2513273.
# ℹ 310 more rows
…
Code

overtime_replacement |>
  group_by(agency) |>
  summarize(total_savings_pct_by_agency = round(sum(savings_pct_of_total), 6)) |>
  arrange(desc(total_savings_pct_by_agency))

# A tibble: 93 × 2
   agency                         total_savings_pct_by_agency
   <chr>                                                <dbl>
 1 Police Department                                   0.383 
 2 Fire Department                                     0.190 
 3 Department Of Correction                            0.112 
 4 Department Of Sanitation                            0.0799
 5 Nyc Housing Authority                               0.0566
 6 Department Of Transportation                        0.0321
 7 Dept Of Environment Protection                      0.0249
 8 Hra/Dept Of Social Services                         0.0246
 9 Admin For Children's Svcs                           0.0208
10 Dept Of Citywide Admin Svcs                         0.0120
# ℹ 83 more rows
…
